[21087.935546875,-16349.2724609375,0.16251426935195922852,-3.1243164539337158203,3.0584170818328857422,3.0247397422790527344]
[21088,-16349.3046875,0.15589062869548797607,-3.1260142326354980469,3.0785934925079345703,3.1251633167266845703]
[21088.103515625,-16349.21484375,0.17469637095928192139,-3.1263420581817626953,3.0709438323974609375,3.0501146316528320312]
[21088.126953125,-16349.2060546875,0.17723074555397033691,-3.13115692138671875,3.0756547451019287109,3.0046231746673583984]
[21088.083984375,-16349.1904296875,0.18477125465869903564,-3.1345319747924804688,3.0802478790283203125,2.9691739082336425781]
[21087.86328125,-16349.2138671875,0.19668364524841308594,3.1255054473876953125,3.0584022998809814453,2.9332106113433837891]
[21087.71484375,-16349.400390625,0.19679734110832214355,-3.1403527259826660156,3.0819239616394042969,3.057048797607421875]
[21087.685546875,-16349.3896484375,0.20519599318504333496,-3.1188218593597412109,3.0678427219390869141,3.1232149600982666016]
[21087.625,-16349.34375,0.20877544581890106201,0.027148613706231117249,0.07390248030424118042,0.017870482057332992554]
[21087.564453125,-16349.2958984375,0.20769226551055908203,0.015190343372523784637,0.061033096164464950562,0.040289927273988723755]
[21087.517578125,-16349.248046875,0.21510723233222961426,0.026352005079388618469,0.071224093437194824219,0.059356279671192169189]
[21087.462890625,-16349.197265625,0.21752050518989562988,0.025277150794863700867,0.059486653655767440796,0.075674049556255340576]
[21087.41796875,-16349.1513671875,0.22445735335350036621,0.024424415081739425659,0.066425800323486328125,0.086496278643608093262]
[21087.376953125,-16349.1748046875,0.2369477003812789917,0.017531078308820724487,0.062126044183969497681,0.087840355932712554932]
[21087.353515625,-16349.2119140625,0.2424952387809753418,0.025477407500147819519,0.075748585164546966553,0.065889224410057067871]
[21087.322265625,-16349.255859375,0.24256615340709686279,0.0137072000652551651,0.063555821776390075684,0.038110896944999694824]
[21087.287109375,-16349.3017578125,0.25704243779182434082,0.025010418146848678589,0.073669113218784332275,0.036893233656883239746]
[21087.2421875,-16349.3603515625,0.26231566071510314941,0.024269593879580497742,0.079629048705101013184,0.073211424052715301514]
[21087.189453125,-16349.4140625,0.25764179229736328125,0.026812179014086723328,0.057985335588455200195,0.070253767073154449463]
[21087.06640625,-16349.435546875,0.26885595917701721191,0.021656567230820655823,0.066908530890941619873,0.068496085703372955322]
[21086.796875,-16349.4326171875,0.27615895867347717285,0.030898097902536392212,0.085923247039318084717,0.036790464073419570923]
[21086.5234375,-16349.4189453125,0.27074202895164489746,0.025442413985729217529,0.067628800868988037109,0.06981226801872253418]
[21086.255859375,-16349.3955078125,0.27510774135589599609,0.024000016972422599792,0.066968530416488647461,0.10680256783962249756]
[21086.056640625,-16349.3447265625,0.27831146121025085449,0.024586251005530357361,0.068669915199279785156,0.10120452195405960083]
[21085.869140625,-16349.2822265625,0.28073388338088989258,0.023128813132643699646,0.065545395016670227051,0.083535030484199523926]
[21085.724609375,-16349.2197265625,0.28270292282104492188,0.020064804702997207642,0.068143703043460845947,0.054105479270219802856]
[21085.626953125,-16349.169921875,0.28369340300559997559,0.01891141943633556366,0.068794451653957366943,0.013748627156019210815]
[21085.763671875,-16349.103515625,0.29769510030746459961,-3.1233770847320556641,3.0370361804962158203,3.1060340404510498047]
[21086.251953125,-16349.0087890625,0.30089941620826721191,-3.125133514404296875,3.0716340541839599609,3.1231205463409423828]
[21086.421875,-16348.9658203125,0.30716234445571899414,0.020986847579479217529,0.058002013713121414185,0.061145223677158355713]
[21086.49609375,-16348.92578125,0.31425303220748901367,0.025760762393474578857,0.064855597913265228271,0.11118192225694656372]
[21086.5234375,-16348.888671875,0.31860661506652832031,0.026216575875878334045,0.060190934687852859497,0.14794629812240600586]
[21086.529296875,-16348.8486328125,0.32560566067695617676,0.031310494989156723022,0.064330838620662689209,0.18151573836803436279]
[21086.513671875,-16348.8076171875,0.33189427852630615234,0.030760232359170913696,0.060369096696376800537,0.21273750066757202148]
[21086.48046875,-16348.767578125,0.33768245577812194824,0.032230693846940994263,0.05755251273512840271,0.24292816221714019775]
[21086.341796875,-16348.740234375,0.34671935439109802246,0.037424042820930480957,0.064972817897796630859,0.27170413732528686523]
[21086.15625,-16348.73046875,0.35147172212600708008,0.04338906705379486084,0.066955938935279846191,0.29984775185585021973]
[21085.970703125,-16348.7294921875,0.3510824739933013916,0.03528466448187828064,0.049638021737337112427,0.32232743501663208008]
[21085.79296875,-16348.7294921875,0.35682228207588195801,0.040415015071630477905,0.056963618844747543335,0.34401172399520874023]
[21085.62890625,-16348.7314453125,0.35831242799758911133,0.04236125946044921875,0.059354376047849655151,0.35930913686752319336]
[21085.47265625,-16348.73828125,0.36438575387001037598,0.038658853620290756226,0.059276256710290908813,0.31700414419174194336]
[21085.306640625,-16348.75,0.36871835589408874512,0.039529953151941299438,0.061138823628425598145,0.26438257098197937012]
[21085.126953125,-16348.7626953125,0.36934357881546020508,0.029553994536399841309,0.055637639015913009644,0.22455267608165740967]
[21084.958984375,-16348.771484375,0.37829932570457458496,0.03179585188627243042,0.064961306750774383545,0.19327159225940704346]
[21084.82421875,-16348.7841796875,0.38271406292915344238,0.028287669643759727478,0.062373463064432144165,0.16204565763473510742]
[21084.71484375,-16348.796875,0.38769903779029846191,0.026304528117179870605,0.06266708672046661377,0.12942342460155487061]
[21084.623046875,-16348.802734375,0.39461496472358703613,0.025092924013733863831,0.066039502620697021484,0.10081348568201065063]
[21084.494140625,-16348.80078125,0.40051072835922241211,0.028277285397052764893,0.071784533560276031494,0.1369663923978805542]
[21084.45703125,-16348.7919921875,0.39957672357559204102,0.02620837092399597168,0.060521002858877182007,0.14569966495037078857]
[21084.408203125,-16348.779296875,0.40268933773040771484,0.025534085929393768311,0.064181342720985412598,0.1390492171049118042]
