[21086.9375,-16348.4462890625,0.19621479511260986328,0.057055864483118057251,0.007921674288809299469,1.1675813198089599609]
[21087.337890625,-16348.3154296875,0.19286108016967773438,0.074146486818790435791,0.020560484379529953003,1.1364501714706420898]
[21087.154296875,-16349.25390625,0.20321431756019592285,0.070856943726539611816,0.0026749926619231700897,1.2761588096618652344]
[21087.138671875,-16349.4375,0.20814980566501617432,0.070370629429817199707,0.00046896564890630543232,1.3137052059173583984]
[21087.14453125,-16349.83203125,0.29008397459983825684,0.068702176213264465332,0.019188201054930686951,1.0541031360626220703]
[21087.189453125,-16349.7861328125,0.28679236769676208496,0.073930494487285614014,0.023290406912565231323,1.0624065399169921875]
[21087.294921875,-16349.70703125,0.28996029496192932129,0.071838796138763427734,0.021550819277763366699,1.0518270730972290039]
[21087.677734375,-16349.4716796875,0.30454599857330322266,0.069768615067005157471,0.026361949741840362549,0.95061838626861572266]
[21088.13671875,-16349.23046875,0.31997036933898925781,0.080024257302284240723,0.0080024898052215576172,1.0157229900360107422]
[21088.556640625,-16348.9638671875,0.30947035551071166992,0.058904495090246200562,0.036850199103355407715,0.74926620721817016602]
[21088.6328125,-16349.009765625,0.30809450149536132812,0.057102479040622711182,0.037317369133234024048,0.74097526073455810547]
[21088.677734375,-16349.0576171875,0.30457964539527893066,0.058491762727499008179,0.039300356060266494751,0.74905979633331298828]
[21088.71484375,-16349.1083984375,0.30124244093894958496,0.059962838888168334961,0.035265956073999404907,0.779331207275390625]
[21088.697265625,-16349.22265625,0.29932969808578491211,0.056274753063917160034,0.032318733632564544678,0.80059456825256347656]
[21088.294921875,-16350.2353515625,0.28598162531852722168,0.062515780329704284668,0.048684768378734588623,0.69700348377227783203]
[21088.28515625,-16350.2373046875,0.28158777952194213867,0.058424863964319229126,0.041908707469701766968,0.64746809005737304688]
[21088.255859375,-16350.2451171875,0.27938535809516906738,0.049399971961975097656,0.04174024239182472229,0.61522758007049560547]
[21088.22265625,-16350.2333984375,0.28057259321212768555,0.054213818162679672241,0.047609739005565643311,0.59108221530914306641]
[21088.193359375,-16350.2109375,0.27679169178009033203,0.049257386475801467896,0.044255614280700683594,0.56946736574172973633]
[21088.171875,-16350.1962890625,0.27759850025177001953,0.049308914691209793091,0.047671966254711151123,0.55188757181167602539]
[21088.1484375,-16350.177734375,0.27577093243598937988,0.048898033797740936279,0.047923602163791656494,0.53883975744247436523]
[21088.087890625,-16350.1513671875,0.27307218313217163086,0.048199377954006195068,0.047415632754564285278,0.52831131219863891602]
[21088.033203125,-16350.1201171875,0.27090856432914733887,0.049052134156227111816,0.049539562314748764038,0.52224296331405639648]
[21087.962890625,-16350.060546875,0.26769387722015380859,0.057583931833505630493,0.040461689233779907227,0.52117204666137695312]
[21087.8125,-16349.9228515625,0.27333873510360717773,0.064415223896503448486,0.053603317588567733765,0.54837262630462646484]
[21087.693359375,-16349.8076171875,0.26857334375381469727,0.044740561395883560181,0.038703370839357376099,0.58469462394714355469]
[21087.55078125,-16349.68359375,0.26546990871429443359,0.0550022907555103302,0.059806499630212783813,0.5597375035285949707]
[21087.427734375,-16349.6083984375,0.25784456729888916016,0.053438331931829452515,0.058149892836809158325,0.48921340703964233398]
[21087.30078125,-16349.55078125,0.25180548429489135742,0.040800966322422027588,0.04437084496021270752,0.42930507659912109375]
[21087.193359375,-16349.494140625,0.25539728999137878418,0.04208876192569732666,0.061064578592777252197,0.39557701349258422852]
[21087.087890625,-16349.416015625,0.24876289069652557373,0.037083838135004043579,0.04985281825065612793,0.37681606411933898926]
[21086.966796875,-16349.3359375,0.24630264937877655029,0.037847142666578292847,0.065945945680141448975,0.30690023303031921387]
[21086.865234375,-16349.26953125,0.23761756718158721924,0.030225453898310661316,0.057838398963212966919,0.22137688100337982178]
[21086.80078125,-16348.8798828125,0.22355060279369354248,0.026765458285808563232,0.057059906423091888428,0.19912450015544891357]
[21086.8359375,-16348.798828125,0.22516483068466186523,0.037750907242298126221,0.057555422186851501465,0.29376593232154846191]
[21086.849609375,-16348.7265625,0.22384774684906005859,0.037112951278686523438,0.053904801607131958008,0.37071490287780761719]
[21086.84765625,-16348.65234375,0.22706250846385955811,0.045559812337160110474,0.055445682257413864136,0.41103944182395935059]
[21086.9453125,-16348.3291015625,0.23227076232433319092,0.047690384089946746826,0.054580349475145339966,0.3894907832145690918]
[21086.939453125,-16348.27734375,0.22914831340312957764,0.030372826382517814636,0.052107777446508407593,0.29564085602760314941]
[21086.921875,-16348.2373046875,0.23336432874202728271,0.032865110784769058228,0.060003224760293960571,0.21425543725490570068]
[21086.91015625,-16348.2041015625,0.23290835320949554443,0.030242891982197761536,0.05969349294900894165,0.14999414980411529541]
[21086.89453125,-16348.1474609375,0.23273882269859313965,0.015981558710336685181,0.061958339065313339233,0.098250947892665863037]
[21086.876953125,-16348.095703125,0.23890799283981323242,0.033998366445302963257,0.069669805467128753662,0.097248367965221405029]
[21086.81640625,-16347.9619140625,0.24194066226482391357,0.028646999970078468323,0.062630616128444671631,0.20387119054794311523]
[21086.763671875,-16347.8515625,0.24689804017543792725,0.036293696612119674683,0.059134136885404586792,0.2873560488224029541]
[21086.654296875,-16347.76171875,0.25117376446723937988,0.03302869945764541626,0.058996014297008514404,0.19680705666542053223]
[21086.33984375,-16347.72265625,0.24487358331680297852,0.023742765188217163086,0.060686416923999786377,0.14676751196384429932]
[21086.2734375,-16347.697265625,0.24332971870899200439,0.027073564007878303528,0.060297548770904541016,0.1410614699125289917]
[21086.22265625,-16347.66015625,0.24358926713466644287,0.025896817445755004883,0.064138375222682952881,0.13864450156688690186]
[21086.18359375,-16347.6220703125,0.24044935405254364014,0.025753837078809738159,0.062017999589443206787,0.13949909806251525879]
